project_1/project_1.sim/sim_1/behav/xsim/flopr_waves.vcd
$date
   Wed Dec 24 14:15:19 2025
$end
$version
  2019.2
$end
$timescale
  1ps
$end
$scope module flopr_tb $end
$var reg 1 ! clk $end
$var reg 1 " reset $end
$var reg 8 # d [7:0] $end
$var reg 8 $ q [7:0] $end
$var parameter 32 % WIDTH [31:0] $end
$var parameter 32 & CLK_PERIOD [31:0] $end
$scope module dut $end
$var wire 1 ' clk $end
$var wire 1 ( reset $end
$var wire 8 ) d [7:0] $end
$var reg 8 $ q [7:0] $end
$var parameter 32 * WIDTH [31:0] $end
$upscope $end
$upscope $end
$enddefinitions $end
#0
$dumpvars
0!
1"
b0 #
b0 $
b1000 %
b1010 &
0'
1(
b0 )
b1000 *
$end
#5000
1!
1'
#10000
0!
0'
#15000
1!
1'
#20000
0!
0"
b10101010 #
0'
0(
b10101010 )
#25000
1!
b10101010 $
1'
#30000
0!
0'
#35000
1!
1'
#40000
0!
b1010101 #
0'
b1010101 )
#45000
1!
b1010101 $
1'
#50000
0!
0'
#55000
1!
1'
#60000
0!
b11111111 #
0'
b11111111 )
#65000
1!
1"
b0 $
1'
1(
#70000
0!
0'
#75000
1!
1'
#80000
0!
0"
b11001100 #
0'
0(
b11001100 )
#85000
1!
b11001100 $
1'
#90000
0!
0'
#95000
1!
1'
#100000
0!
b10001 #
0'
b10001 )
#105000
1!
b100010 #
b100010 $
1'
b100010 )
#110000
0!
b110011 #
0'
b110011 )
#115000
1!
b110011 $
1'
